%YAML 1.1
%TAG !u! tag:unity3d.com,2011:
--- !u!114 &11400000
MonoBehaviour:
  m_ObjectHideFlags: 0
  m_CorrespondingSourceObject: {fileID: 0}
  m_PrefabInstance: {fileID: 0}
  m_PrefabAsset: {fileID: 0}
  m_GameObject: {fileID: 0}
  m_Enabled: 1
  m_EditorHideFlags: 0
  m_Script: {fileID: 11500000, guid: 15becf274259fc24e88f7983d0a0b681, type: 3}
  m_Name: MediumQuestion7
  m_EditorClassIdentifier: 
  usePreSetExpression: 0
  Dificulty: 1
  QuestionExpression: a * b - c
  Answer: -25
